%!PS-Adobe-3.0 EPSF-3.0
%%BoundingBox: (atend)
%%LanguageLevel: 2
%%Creator: Grace-5.1.25
%%CreationDate: Wed Mar 28 12:04:07 2018
%%DocumentData: Clean8Bit
%%Orientation: Portrait
%%Title: vol_scale.agr
%%For: cmaynard
%%DocumentNeededResources: (atend)
%%EndComments
%%BeginProlog
/m {moveto} def
/l {lineto} def
/s {stroke} def
/n {newpath} def
/c {closepath} def
/RL {rlineto} def
/SLW {setlinewidth} def
/GS {gsave} def
/GR {grestore} def
/SC {setcolor} def
/SGRY {setgray} def
/SRGB {setrgbcolor} def
/SD {setdash} def
/SLC {setlinecap} def
/SLJ {setlinejoin} def
/SCS {setcolorspace} def
/FFSF {findfont setfont} def
/CC {concat} def
/PXL {n m 0 0 RL s} def
/Color0 {1.0000 1.0000 1.0000} def
/Color1 {0.0000 0.0000 0.0000} def
/Color2 {1.0000 0.0000 0.0000} def
/Color3 {0.0000 1.0000 0.0000} def
/Color4 {0.0000 0.0000 1.0000} def
/Color5 {1.0000 1.0000 0.0000} def
/Color6 {0.7373 0.5608 0.5608} def
/Color7 {0.8627 0.8627 0.8627} def
/Color8 {0.5804 0.0000 0.8275} def
/Color9 {0.0000 1.0000 1.0000} def
/Color10 {1.0000 0.0000 1.0000} def
/Color11 {1.0000 0.6471 0.0000} def
/Color12 {0.4471 0.1294 0.7373} def
/Color13 {0.4039 0.0275 0.2824} def
/Color14 {0.2510 0.8784 0.8157} def
/Color15 {0.0000 0.5451 0.0000} def
/Color16 {0.7529 0.7529 0.7529} def
/Color17 {0.5059 0.5059 0.5059} def
/Color18 {0.2588 0.2588 0.2588} def
/PTRN {
 /pat_bits exch def 
 <<
  /PaintType 2
  /PatternType 1 /TilingType 1
  /BBox[0 0 16 16]
  /XStep 16 /YStep 16
  /PaintProc {
   pop
   16 16 true [-1 0 0 -1 16 16] pat_bits imagemask
  }
 >>
 [0.0016 0 0 0.0016 0 0]
 makepattern
} def
/Pattern0 {<0000000000000000000000000000000000000000000000000000000000000000> PTRN} bind def
/Pattern1 {<ffffffffffffffffffffffffffffffffffffffffffffffffffffffffffffffff> PTRN} bind def
/Pattern2 {<eeeeffffbbbbffffeeeeffffbbbbffffeeeeffffbbbbffffeeeeffffbbbbffff> PTRN} bind def
/Pattern3 {<eeeebbbbeeeebbbbeeeebbbbeeeebbbbeeeebbbbeeeebbbbeeeebbbbeeeebbbb> PTRN} bind def
/Pattern4 {<5555aaaa5555aaaa5555aaaa5555aaaa5555aaaa5555aaaa5555aaaa5555aaaa> PTRN} bind def
/Pattern5 {<1111444411114444111144441111444411114444111144441111444411114444> PTRN} bind def
/Pattern6 {<1111000044440000111100004444000011110000444400001111000044440000> PTRN} bind def
/Pattern7 {<1010000000000000010100000000000010100000000000000101000000000000> PTRN} bind def
/Pattern8 {<0000000000000000000000000000000000000000000000000000000000000000> PTRN} bind def
/Pattern9 {<1e1e0f0f8787c3c3e1e1f0f078783c3c1e1e0f0f8787c3c3e1e1f0f078783c3c> PTRN} bind def
/Pattern10 {<7878f0f0e1e1c3c387870f0f1e1e3c3c7878f0f0e1e1c3c387870f0f1e1e3c3c> PTRN} bind def
/Pattern11 {<3333333333333333333333333333333333333333333333333333333333333333> PTRN} bind def
/Pattern12 {<ffffffff00000000ffffffff00000000ffffffff00000000ffffffff00000000> PTRN} bind def
/Pattern13 {<8181424224241818181824244242818181814242242418181818242442428181> PTRN} bind def
/Pattern14 {<8080404020201010080804040202010180804040202010100808040402020101> PTRN} bind def
/Pattern15 {<0101020204040808101020204040808001010202040408081010202040408080> PTRN} bind def
/Pattern16 {<2222222222222222222222222222222222222222222222222222222222222222> PTRN} bind def
/Pattern17 {<0000ffff000000000000ffff000000000000ffff000000000000ffff00000000> PTRN} bind def
/Pattern18 {<2222ffff222222222222ffff222222222222ffff222222222222ffff22222222> PTRN} bind def
/Pattern19 {<ffffffff33333333ffffffff33333333ffffffff33333333ffffffff33333333> PTRN} bind def
/Pattern20 {<0f0f0f0f0f0f0f0ff0f0f0f0f0f0f0f00f0f0f0f0f0f0f0ff0f0f0f0f0f0f0f0> PTRN} bind def
/Pattern21 {<ff00ff00ff00ff00ff00ff00ff00ff0000ff00ff00ff00ff00ff00ff00ff00ff> PTRN} bind def
/Pattern22 {<8001800180018001800180018001ffffffff8001800180018001800180018001> PTRN} bind def
/Pattern23 {<c003c003c003c003c003c003ffffffffffffffffc003c003c003c003c003c003> PTRN} bind def
/Pattern24 {<040404040404ffff404040404040ffff040404040404ffff404040404040ffff> PTRN} bind def
/Pattern25 {<180018001800180018001800ffffffff001800180018001800180018ffffffff> PTRN} bind def
/Pattern26 {<1111b8b87c7c3a3a1111a3a3c7c78b8b1111b8b87c7c3a3a1111a3a3c7c78b8b> PTRN} bind def
/Pattern27 {<101010102828c7c70101010182827c7c101010102828c7c70101010182827c7c> PTRN} bind def
/Pattern28 {<1c1c121211112121c1c12121111112121c1c121211112121c1c1212111111212> PTRN} bind def
/Pattern29 {<3e3e414180808080e3e31414080808083e3e414180808080e3e3141408080808> PTRN} bind def
/Pattern30 {<4848888884848383848488884848383848488888848483838484888848483838> PTRN} bind def
/Pattern31 {<03030404080808080c0c12122121c0c003030404080808080c0c12122121c0c0> PTRN} bind def
/ellipsedict 8 dict def
ellipsedict /mtrx matrix put
/EARC {
 ellipsedict begin
  /endangle exch def
  /startangle exch def
  /yrad exch def
  /xrad exch def
  /y exch def
  /x exch def
  /savematrix mtrx currentmatrix def
  x y translate
  xrad yrad scale
  0 0 1 startangle endangle arc
  savematrix setmatrix
 end
} def
/TL {
  /kcomp exch def
  /linewidth exch def
  /offset exch def
  GS
  0 offset rmoveto
  linewidth SLW
  dup stringwidth exch kcomp add exch RL s
  GR
} def
/KINIT
{
 /kvector exch def
 /kid 0 def
} def
/KPROC
{
 pop pop
 kvector kid get
 0 rmoveto
 /kid 1 kid add def
} def
/DefEncoding [
 /.notdef
 /.notdef
 /.notdef
 /.notdef
 /.notdef
 /.notdef
 /.notdef
 /.notdef
 /.notdef
 /.notdef
 /.notdef
 /.notdef
 /.notdef
 /.notdef
 /.notdef
 /.notdef
 /.notdef
 /.notdef
 /.notdef
 /.notdef
 /.notdef
 /.notdef
 /.notdef
 /.notdef
 /.notdef
 /.notdef
 /.notdef
 /.notdef
 /.notdef
 /.notdef
 /.notdef
 /.notdef
 /space
 /exclam
 /quotedbl
 /numbersign
 /dollar
 /percent
 /ampersand
 /quoteright
 /parenleft
 /parenright
 /asterisk
 /plus
 /comma
 /hyphen
 /period
 /slash
 /zero
 /one
 /two
 /three
 /four
 /five
 /six
 /seven
 /eight
 /nine
 /colon
 /semicolon
 /less
 /equal
 /greater
 /question
 /at
 /A
 /B
 /C
 /D
 /E
 /F
 /G
 /H
 /I
 /J
 /K
 /L
 /M
 /N
 /O
 /P
 /Q
 /R
 /S
 /T
 /U
 /V
 /W
 /X
 /Y
 /Z
 /bracketleft
 /backslash
 /bracketright
 /asciicircum
 /underscore
 /grave
 /a
 /b
 /c
 /d
 /e
 /f
 /g
 /h
 /i
 /j
 /k
 /l
 /m
 /n
 /o
 /p
 /q
 /r
 /s
 /t
 /u
 /v
 /w
 /x
 /y
 /z
 /braceleft
 /bar
 /braceright
 /asciitilde
 /.notdef
 /.notdef
 /.notdef
 /.notdef
 /.notdef
 /.notdef
 /.notdef
 /.notdef
 /.notdef
 /.notdef
 /.notdef
 /.notdef
 /.notdef
 /.notdef
 /.notdef
 /.notdef
 /.notdef
 /.notdef
 /.notdef
 /.notdef
 /.notdef
 /.notdef
 /.notdef
 /.notdef
 /.notdef
 /.notdef
 /.notdef
 /.notdef
 /.notdef
 /.notdef
 /.notdef
 /.notdef
 /.notdef
 /space
 /exclamdown
 /cent
 /sterling
 /currency
 /yen
 /brokenbar
 /section
 /dieresis
 /copyright
 /ordfeminine
 /guillemotleft
 /logicalnot
 /hyphen
 /registered
 /macron
 /degree
 /plusminus
 /twosuperior
 /threesuperior
 /acute
 /mu
 /paragraph
 /periodcentered
 /cedilla
 /onesuperior
 /ordmasculine
 /guillemotright
 /onequarter
 /onehalf
 /threequarters
 /questiondown
 /Agrave
 /Aacute
 /Acircumflex
 /Atilde
 /Adieresis
 /Aring
 /AE
 /Ccedilla
 /Egrave
 /Eacute
 /Ecircumflex
 /Edieresis
 /Igrave
 /Iacute
 /Icircumflex
 /Idieresis
 /Eth
 /Ntilde
 /Ograve
 /Oacute
 /Ocircumflex
 /Otilde
 /Odieresis
 /multiply
 /Oslash
 /Ugrave
 /Uacute
 /Ucircumflex
 /Udieresis
 /Yacute
 /Thorn
 /germandbls
 /agrave
 /aacute
 /acircumflex
 /atilde
 /adieresis
 /aring
 /ae
 /ccedilla
 /egrave
 /eacute
 /ecircumflex
 /edieresis
 /igrave
 /iacute
 /icircumflex
 /idieresis
 /eth
 /ntilde
 /ograve
 /oacute
 /ocircumflex
 /otilde
 /odieresis
 /divide
 /oslash
 /ugrave
 /uacute
 /ucircumflex
 /udieresis
 /yacute
 /thorn
 /ydieresis
] def
%%EndProlog
%%BeginSetup
%%EndSetup
612.00 612.00 scale
n
0.0000 0.0000 m
0.0000 1.0000 l
1.2941 1.0000 l
1.2941 0.0000 l
c
[/DeviceRGB] SCS
Color0 SC
fill
n
0.5696 0.1500 m
0.5696 0.4311 l
0.5896 0.4311 l
0.5896 0.1500 l
c
[/DeviceRGB] SCS
Color1 SC
fill
[] 0 SD
0.0015 SLW
0 SLC
0 SLJ
n
0.5696 0.1500 m
0.5696 0.4311 l
0.5896 0.4311 l
0.5896 0.1500 l
0.5696 0.1500 l
c
s
n
0.5496 0.1500 m
0.5496 0.4318 l
0.5696 0.4318 l
0.5696 0.1500 l
c
[/DeviceRGB] SCS
Color2 SC
fill
n
0.8682 0.1500 m
0.8682 0.6208 l
0.8882 0.6208 l
0.8882 0.1500 l
c
fill
n
1.0616 0.1500 m
1.0616 0.7216 l
1.0816 0.7216 l
1.0816 0.1500 l
c
fill
n
0.5496 0.1500 m
0.5496 0.4318 l
0.5696 0.4318 l
0.5696 0.1500 l
0.5496 0.1500 l
c
s
n
0.8682 0.1500 m
0.8682 0.6208 l
0.8882 0.6208 l
0.8882 0.1500 l
0.8682 0.1500 l
c
s
n
1.0616 0.1500 m
1.0616 0.7216 l
1.0816 0.7216 l
1.0816 0.1500 l
1.0616 0.1500 l
c
s
n
0.5345 0.1500 m
0.5345 0.4906 l
0.5545 0.4906 l
0.5545 0.1500 l
c
GS
Color0 SRGB
fill
GR
[/Pattern /DeviceRGB] SCS
Color2 Pattern9 SC
fill
n
0.8511 0.1500 m
0.8511 0.7139 l
0.8711 0.7139 l
0.8711 0.1500 l
c
GS
[/DeviceRGB] SCS
Color0 SRGB
fill
GR
fill
n
1.0444 0.1500 m
1.0444 0.8329 l
1.0644 0.8329 l
1.0644 0.1500 l
c
GS
[/DeviceRGB] SCS
Color0 SRGB
fill
GR
fill
[/DeviceRGB] SCS
Color2 SC
n
0.5345 0.1500 m
0.5345 0.4906 l
0.5545 0.4906 l
0.5545 0.1500 l
0.5345 0.1500 l
c
s
n
0.8511 0.1500 m
0.8511 0.7139 l
0.8711 0.7139 l
0.8711 0.1500 l
0.8511 0.1500 l
c
s
n
1.0444 0.1500 m
1.0444 0.8329 l
1.0644 0.8329 l
1.0644 0.1500 l
1.0444 0.1500 l
c
s
n
0.9592 0.1500 m
0.9592 0.5665 l
0.9792 0.5665 l
0.9792 0.1500 l
c
[/DeviceRGB] SCS
Color4 SC
fill
n
0.9592 0.1500 m
0.9592 0.5665 l
0.9792 0.5665 l
0.9792 0.1500 l
0.9592 0.1500 l
c
s
n
0.9414 0.1500 m
0.9414 0.6075 l
0.9614 0.6075 l
0.9614 0.1500 l
c
GS
Color0 SRGB
fill
GR
[/Pattern /DeviceRGB] SCS
Color4 Pattern9 SC
fill
[/DeviceRGB] SCS
Color4 SC
n
0.9414 0.1500 m
0.9414 0.6075 l
0.9614 0.6075 l
0.9614 0.1500 l
0.9414 0.1500 l
c
s
[/DeviceRGB] SCS
Color1 SC
n
0.1500 0.1500 m
1.1500 0.1500 l
s
n
0.1500 0.8500 m
1.1500 0.8500 l
s
n
0.2611 0.1500 m
0.2611 0.1600 l
s
n
0.2611 0.8500 m
0.2611 0.8400 l
s
n
0.4833 0.1500 m
0.4833 0.1600 l
s
n
0.4833 0.8500 m
0.4833 0.8400 l
s
n
0.7056 0.1500 m
0.7056 0.1600 l
s
n
0.7056 0.8500 m
0.7056 0.8400 l
s
n
0.9278 0.1500 m
0.9278 0.1600 l
s
n
0.9278 0.8500 m
0.9278 0.8400 l
s
n
1.1500 0.1500 m
1.1500 0.1600 l
s
n
1.1500 0.8500 m
1.1500 0.8400 l
s
n
0.1500 0.1500 m
0.1500 0.1700 l
s
n
0.1500 0.8500 m
0.1500 0.8300 l
s
n
0.3722 0.1500 m
0.3722 0.1700 l
s
n
0.3722 0.8500 m
0.3722 0.8300 l
s
n
0.5944 0.1500 m
0.5944 0.1700 l
s
n
0.5944 0.8500 m
0.5944 0.8300 l
s
n
0.8167 0.1500 m
0.8167 0.1700 l
s
n
0.8167 0.8500 m
0.8167 0.8300 l
s
n
1.0389 0.1500 m
1.0389 0.1700 l
s
n
1.0389 0.8500 m
1.0389 0.8300 l
s
/Helvetica findfont
dup length dict begin
 {1 index /FID ne {def} {pop pop} ifelse} forall
 /Encoding DefEncoding def
 currentdict
end
/Font4 exch definefont pop
/Font4 FFSF
0.1429 0.1200 m
GS
[0.0280 0.0000 0.0000 0.0280 0 0] CC
(0) show
GR
/Font4 FFSF
0.3418 0.1200 m
GS
[0.0280 0.0000 0.0000 0.0280 0 0] CC
(5000) show
GR
/Font4 FFSF
0.5562 0.1200 m
GS
[0.0280 0.0000 0.0000 0.0280 0 0] CC
(10000) show
GR
/Font4 FFSF
0.7784 0.1200 m
GS
[0.0280 0.0000 0.0000 0.0280 0 0] CC
(15000) show
GR
/Font4 FFSF
1.0007 0.1200 m
GS
[0.0280 0.0000 0.0000 0.0280 0 0] CC
(20000) show
GR
/Font4 FFSF
0.4733 0.0837 m
GS
[0.0350 0.0000 0.0000 0.0350 0 0] CC
(ncells per panel \(node\)) show
GR
n
0.1500 0.1500 m
0.1500 0.8500 l
s
n
1.1500 0.1500 m
1.1500 0.8500 l
s
n
0.1500 0.1850 m
0.1600 0.1850 l
s
n
1.1500 0.1850 m
1.1400 0.1850 l
s
n
0.1500 0.2550 m
0.1600 0.2550 l
s
n
1.1500 0.2550 m
1.1400 0.2550 l
s
n
0.1500 0.3250 m
0.1600 0.3250 l
s
n
1.1500 0.3250 m
1.1400 0.3250 l
s
n
0.1500 0.3950 m
0.1600 0.3950 l
s
n
1.1500 0.3950 m
1.1400 0.3950 l
s
n
0.1500 0.4650 m
0.1600 0.4650 l
s
n
1.1500 0.4650 m
1.1400 0.4650 l
s
n
0.1500 0.5350 m
0.1600 0.5350 l
s
n
1.1500 0.5350 m
1.1400 0.5350 l
s
n
0.1500 0.6050 m
0.1600 0.6050 l
s
n
1.1500 0.6050 m
1.1400 0.6050 l
s
n
0.1500 0.6750 m
0.1600 0.6750 l
s
n
1.1500 0.6750 m
1.1400 0.6750 l
s
n
0.1500 0.7450 m
0.1600 0.7450 l
s
n
1.1500 0.7450 m
1.1400 0.7450 l
s
n
0.1500 0.8150 m
0.1600 0.8150 l
s
n
1.1500 0.8150 m
1.1400 0.8150 l
s
n
0.1500 0.1500 m
0.1700 0.1500 l
s
n
1.1500 0.1500 m
1.1300 0.1500 l
s
n
0.1500 0.2200 m
0.1700 0.2200 l
s
n
1.1500 0.2200 m
1.1300 0.2200 l
s
n
0.1500 0.2900 m
0.1700 0.2900 l
s
n
1.1500 0.2900 m
1.1300 0.2900 l
s
n
0.1500 0.3600 m
0.1700 0.3600 l
s
n
1.1500 0.3600 m
1.1300 0.3600 l
s
n
0.1500 0.4300 m
0.1700 0.4300 l
s
n
1.1500 0.4300 m
1.1300 0.4300 l
s
n
0.1500 0.5000 m
0.1700 0.5000 l
s
n
1.1500 0.5000 m
1.1300 0.5000 l
s
n
0.1500 0.5700 m
0.1700 0.5700 l
s
n
1.1500 0.5700 m
1.1300 0.5700 l
s
n
0.1500 0.6400 m
0.1700 0.6400 l
s
n
1.1500 0.6400 m
1.1300 0.6400 l
s
n
0.1500 0.7100 m
0.1700 0.7100 l
s
n
1.1500 0.7100 m
1.1300 0.7100 l
s
n
0.1500 0.7800 m
0.1700 0.7800 l
s
n
1.1500 0.7800 m
1.1300 0.7800 l
s
n
0.1500 0.8500 m
0.1700 0.8500 l
s
n
1.1500 0.8500 m
1.1300 0.8500 l
s
/Font4 FFSF
0.1259 0.1404 m
GS
[0.0280 0.0000 0.0000 0.0280 0 0] CC
(0) show
GR
/Font4 FFSF
0.1102 0.2104 m
GS
[0.0280 0.0000 0.0000 0.0280 0 0] CC
(20) show
GR
/Font4 FFSF
0.1102 0.2804 m
GS
[0.0280 0.0000 0.0000 0.0280 0 0] CC
(40) show
GR
/Font4 FFSF
0.1102 0.3504 m
GS
[0.0280 0.0000 0.0000 0.0280 0 0] CC
(60) show
GR
/Font4 FFSF
0.1102 0.4204 m
GS
[0.0280 0.0000 0.0000 0.0280 0 0] CC
(80) show
GR
/Font4 FFSF
0.0949 0.4904 m
GS
[0.0280 0.0000 0.0000 0.0280 0 0] CC
(100) show
GR
/Font4 FFSF
0.0949 0.5604 m
GS
[0.0280 0.0000 0.0000 0.0280 0 0] CC
(120) show
GR
/Font4 FFSF
0.0949 0.6304 m
GS
[0.0280 0.0000 0.0000 0.0280 0 0] CC
(140) show
GR
/Font4 FFSF
0.0949 0.7004 m
GS
[0.0280 0.0000 0.0000 0.0280 0 0] CC
(160) show
GR
/Font4 FFSF
0.0949 0.7704 m
GS
[0.0280 0.0000 0.0000 0.0280 0 0] CC
(180) show
GR
/Font4 FFSF
0.0949 0.8404 m
GS
[0.0280 0.0000 0.0000 0.0280 0 0] CC
(200) show
GR
/Font4 FFSF
0.0775 0.4245 m
GS
[0.0000 0.0350 -0.0350 0.0000 0 0] CC
(time \(sec\)) show
GR
n
0.1500 0.1500 m
0.1500 0.8500 l
1.1500 0.8500 l
1.1500 0.1500 l
0.1500 0.1500 l
c
s
n
0.2000 0.8000 m
0.2000 0.6358 l
0.4361 0.6358 l
0.4361 0.8000 l
c
[/DeviceRGB] SCS
Color0 SC
fill
[/DeviceRGB] SCS
Color1 SC
n
0.2000 0.8000 m
0.2000 0.6358 l
0.4361 0.6358 l
0.4361 0.8000 l
0.2000 0.8000 l
c
s
/Font4 FFSF
0.2700 0.7691 m
GS
[0.0280 0.0000 0.0000 0.0280 0 0] CC
(BDW) show
GR
n
0.2200 0.7692 m
0.2200 0.7893 l
0.2400 0.7893 l
0.2400 0.7692 l
c
fill
n
0.2200 0.7692 m
0.2200 0.7893 l
0.2400 0.7893 l
0.2400 0.7692 l
0.2200 0.7692 l
c
s
/Font4 FFSF
0.2700 0.7387 m
GS
[0.0280 0.0000 0.0000 0.0280 0 0] CC
(KNL) show
GR
n
0.2200 0.7389 m
0.2200 0.7589 l
0.2400 0.7589 l
0.2400 0.7389 l
c
[/DeviceRGB] SCS
Color2 SC
fill
n
0.2200 0.7389 m
0.2200 0.7589 l
0.2400 0.7589 l
0.2400 0.7389 l
0.2200 0.7389 l
c
s
/Font4 FFSF
[/DeviceRGB] SCS
Color1 SC
0.2700 0.7083 m
GS
[0.0280 0.0000 0.0000 0.0280 0 0] CC
(KNL T2) show
GR
n
0.2200 0.7085 m
0.2200 0.7285 l
0.2400 0.7285 l
0.2400 0.7085 l
c
GS
Color0 SRGB
fill
GR
[/Pattern /DeviceRGB] SCS
Color2 Pattern9 SC
fill
[/DeviceRGB] SCS
Color2 SC
n
0.2200 0.7085 m
0.2200 0.7285 l
0.2400 0.7285 l
0.2400 0.7085 l
0.2200 0.7085 l
c
s
/Font4 FFSF
[/DeviceRGB] SCS
Color1 SC
0.2700 0.6779 m
GS
[0.0280 0.0000 0.0000 0.0280 0 0] CC
(KNL 60 L) show
GR
n
0.2200 0.6777 m
0.2200 0.6977 l
0.2400 0.6977 l
0.2400 0.6777 l
c
[/DeviceRGB] SCS
Color4 SC
fill
n
0.2200 0.6777 m
0.2200 0.6977 l
0.2400 0.6977 l
0.2400 0.6777 l
0.2200 0.6777 l
c
s
/Font4 FFSF
[/DeviceRGB] SCS
Color1 SC
0.2700 0.6467 m
GS
[0.0280 0.0000 0.0000 0.0280 0 0] CC
(KNL 60 L T2) show
GR
n
0.2200 0.6465 m
0.2200 0.6665 l
0.2400 0.6665 l
0.2400 0.6465 l
c
GS
Color0 SRGB
fill
GR
[/Pattern /DeviceRGB] SCS
Color4 Pattern9 SC
fill
[/DeviceRGB] SCS
Color4 SC
n
0.2200 0.6465 m
0.2200 0.6665 l
0.2400 0.6665 l
0.2400 0.6465 l
0.2200 0.6465 l
c
s
%%Trailer
%%BoundingBox: 30 45 706 528
%%DocumentNeededResources: font Helvetica
%%EOF
