launch CUDA kernel  file=/home/stfc/stfc020/src/GH/gungho-mv/kdriver.F90 function=kdriver line=67 device=0 threadid=1 num_gangs=205 num_workers=1 vector_length=32 grid=205 block=32
launch CUDA kernel  file=/home/stfc/stfc020/src/GH/gungho-mv/kdriver.F90 function=kdriver line=67 device=0 threadid=1 num_gangs=205 num_workers=1 vector_length=32 grid=205 block=32
launch CUDA kernel  file=/home/stfc/stfc020/src/GH/gungho-mv/kdriver.F90 function=kdriver line=67 device=0 threadid=1 num_gangs=205 num_workers=1 vector_length=32 grid=205 block=32
launch CUDA kernel  file=/home/stfc/stfc020/src/GH/gungho-mv/kdriver.F90 function=kdriver line=67 device=0 threadid=1 num_gangs=205 num_workers=1 vector_length=32 grid=205 block=32
launch CUDA kernel  file=/home/stfc/stfc020/src/GH/gungho-mv/kdriver.F90 function=kdriver line=67 device=0 threadid=1 num_gangs=32 num_workers=1 vector_length=32 grid=32 block=32
launch CUDA kernel  file=/home/stfc/stfc020/src/GH/gungho-mv/kdriver.F90 function=kdriver line=67 device=0 threadid=1 num_gangs=12 num_workers=1 vector_length=32 grid=12 block=32

Accelerator Kernel Timing data
/home/stfc/stfc020/src/GH/gungho-mv/kdriver.F90
  kdriver  NVIDIA  devicenum=0
    time(us): 9,851
    61: data region reached 1 time
        61: data copyin transfers: 13
             device time(us): total=2,021 max=1,741 min=9 avg=155
    67: compute region reached 6 times
        67: kernel launched 6 times
            grid: [12-205]  block: [32]
             device time(us): total=7,762 max=1,870 min=334 avg=1,293
            elapsed time(us): total=8,451 max=2,346 min=374 avg=1,408
    83: data region reached 1 time
        83: data copyout transfers: 1
             device time(us): total=68 max=68 min=68 avg=68
