%!PS-Adobe-3.0 EPSF-3.0
%%BoundingBox: (atend)
%%LanguageLevel: 2
%%Creator: Grace-5.1.25
%%CreationDate: Wed Mar 21 08:24:37 2018
%%DocumentData: Clean8Bit
%%Orientation: Portrait
%%Title: /Users/cmaynard/Documents/BristolHackathon/NCAR2017/Plots/LO_compare_arm.agr
%%For: cmaynard
%%DocumentNeededResources: (atend)
%%EndComments
%%BeginProlog
/m {moveto} def
/l {lineto} def
/s {stroke} def
/n {newpath} def
/c {closepath} def
/RL {rlineto} def
/SLW {setlinewidth} def
/GS {gsave} def
/GR {grestore} def
/SC {setcolor} def
/SGRY {setgray} def
/SRGB {setrgbcolor} def
/SD {setdash} def
/SLC {setlinecap} def
/SLJ {setlinejoin} def
/SCS {setcolorspace} def
/FFSF {findfont setfont} def
/CC {concat} def
/PXL {n m 0 0 RL s} def
/Color0 {1.0000 1.0000 1.0000} def
/Color1 {0.0000 0.0000 0.0000} def
/Color2 {1.0000 0.0000 0.0000} def
/Color3 {0.0000 1.0000 0.0000} def
/Color4 {0.0000 0.0000 1.0000} def
/Color5 {1.0000 1.0000 0.0000} def
/Color6 {0.7373 0.5608 0.5608} def
/Color7 {0.8627 0.8627 0.8627} def
/Color8 {0.5804 0.0000 0.8275} def
/Color9 {0.0000 1.0000 1.0000} def
/Color10 {1.0000 0.0000 1.0000} def
/Color11 {1.0000 0.6471 0.0000} def
/Color12 {0.4471 0.1294 0.7373} def
/Color13 {0.4039 0.0275 0.2824} def
/Color14 {0.2510 0.8784 0.8157} def
/Color15 {0.0000 0.5451 0.0000} def
/Color16 {0.7529 0.7529 0.7529} def
/Color17 {0.5059 0.5059 0.5059} def
/Color18 {0.2588 0.2588 0.2588} def
/PTRN {
 /pat_bits exch def 
 <<
  /PaintType 2
  /PatternType 1 /TilingType 1
  /BBox[0 0 16 16]
  /XStep 16 /YStep 16
  /PaintProc {
   pop
   16 16 true [-1 0 0 -1 16 16] pat_bits imagemask
  }
 >>
 [0.0016 0 0 0.0016 0 0]
 makepattern
} def
/Pattern0 {<0000000000000000000000000000000000000000000000000000000000000000> PTRN} bind def
/Pattern1 {<ffffffffffffffffffffffffffffffffffffffffffffffffffffffffffffffff> PTRN} bind def
/Pattern2 {<eeeeffffbbbbffffeeeeffffbbbbffffeeeeffffbbbbffffeeeeffffbbbbffff> PTRN} bind def
/Pattern3 {<eeeebbbbeeeebbbbeeeebbbbeeeebbbbeeeebbbbeeeebbbbeeeebbbbeeeebbbb> PTRN} bind def
/Pattern4 {<5555aaaa5555aaaa5555aaaa5555aaaa5555aaaa5555aaaa5555aaaa5555aaaa> PTRN} bind def
/Pattern5 {<1111444411114444111144441111444411114444111144441111444411114444> PTRN} bind def
/Pattern6 {<1111000044440000111100004444000011110000444400001111000044440000> PTRN} bind def
/Pattern7 {<1010000000000000010100000000000010100000000000000101000000000000> PTRN} bind def
/Pattern8 {<0000000000000000000000000000000000000000000000000000000000000000> PTRN} bind def
/Pattern9 {<1e1e0f0f8787c3c3e1e1f0f078783c3c1e1e0f0f8787c3c3e1e1f0f078783c3c> PTRN} bind def
/Pattern10 {<7878f0f0e1e1c3c387870f0f1e1e3c3c7878f0f0e1e1c3c387870f0f1e1e3c3c> PTRN} bind def
/Pattern11 {<3333333333333333333333333333333333333333333333333333333333333333> PTRN} bind def
/Pattern12 {<ffffffff00000000ffffffff00000000ffffffff00000000ffffffff00000000> PTRN} bind def
/Pattern13 {<8181424224241818181824244242818181814242242418181818242442428181> PTRN} bind def
/Pattern14 {<8080404020201010080804040202010180804040202010100808040402020101> PTRN} bind def
/Pattern15 {<0101020204040808101020204040808001010202040408081010202040408080> PTRN} bind def
/Pattern16 {<2222222222222222222222222222222222222222222222222222222222222222> PTRN} bind def
/Pattern17 {<0000ffff000000000000ffff000000000000ffff000000000000ffff00000000> PTRN} bind def
/Pattern18 {<2222ffff222222222222ffff222222222222ffff222222222222ffff22222222> PTRN} bind def
/Pattern19 {<ffffffff33333333ffffffff33333333ffffffff33333333ffffffff33333333> PTRN} bind def
/Pattern20 {<0f0f0f0f0f0f0f0ff0f0f0f0f0f0f0f00f0f0f0f0f0f0f0ff0f0f0f0f0f0f0f0> PTRN} bind def
/Pattern21 {<ff00ff00ff00ff00ff00ff00ff00ff0000ff00ff00ff00ff00ff00ff00ff00ff> PTRN} bind def
/Pattern22 {<8001800180018001800180018001ffffffff8001800180018001800180018001> PTRN} bind def
/Pattern23 {<c003c003c003c003c003c003ffffffffffffffffc003c003c003c003c003c003> PTRN} bind def
/Pattern24 {<040404040404ffff404040404040ffff040404040404ffff404040404040ffff> PTRN} bind def
/Pattern25 {<180018001800180018001800ffffffff001800180018001800180018ffffffff> PTRN} bind def
/Pattern26 {<1111b8b87c7c3a3a1111a3a3c7c78b8b1111b8b87c7c3a3a1111a3a3c7c78b8b> PTRN} bind def
/Pattern27 {<101010102828c7c70101010182827c7c101010102828c7c70101010182827c7c> PTRN} bind def
/Pattern28 {<1c1c121211112121c1c12121111112121c1c121211112121c1c1212111111212> PTRN} bind def
/Pattern29 {<3e3e414180808080e3e31414080808083e3e414180808080e3e3141408080808> PTRN} bind def
/Pattern30 {<4848888884848383848488884848383848488888848483838484888848483838> PTRN} bind def
/Pattern31 {<03030404080808080c0c12122121c0c003030404080808080c0c12122121c0c0> PTRN} bind def
/ellipsedict 8 dict def
ellipsedict /mtrx matrix put
/EARC {
 ellipsedict begin
  /endangle exch def
  /startangle exch def
  /yrad exch def
  /xrad exch def
  /y exch def
  /x exch def
  /savematrix mtrx currentmatrix def
  x y translate
  xrad yrad scale
  0 0 1 startangle endangle arc
  savematrix setmatrix
 end
} def
/TL {
  /kcomp exch def
  /linewidth exch def
  /offset exch def
  GS
  0 offset rmoveto
  linewidth SLW
  dup stringwidth exch kcomp add exch RL s
  GR
} def
/KINIT
{
 /kvector exch def
 /kid 0 def
} def
/KPROC
{
 pop pop
 kvector kid get
 0 rmoveto
 /kid 1 kid add def
} def
/DefEncoding [
 /.notdef
 /.notdef
 /.notdef
 /.notdef
 /.notdef
 /.notdef
 /.notdef
 /.notdef
 /.notdef
 /.notdef
 /.notdef
 /.notdef
 /.notdef
 /.notdef
 /.notdef
 /.notdef
 /.notdef
 /.notdef
 /.notdef
 /.notdef
 /.notdef
 /.notdef
 /.notdef
 /.notdef
 /.notdef
 /.notdef
 /.notdef
 /.notdef
 /.notdef
 /.notdef
 /.notdef
 /.notdef
 /space
 /exclam
 /quotedbl
 /numbersign
 /dollar
 /percent
 /ampersand
 /quoteright
 /parenleft
 /parenright
 /asterisk
 /plus
 /comma
 /hyphen
 /period
 /slash
 /zero
 /one
 /two
 /three
 /four
 /five
 /six
 /seven
 /eight
 /nine
 /colon
 /semicolon
 /less
 /equal
 /greater
 /question
 /at
 /A
 /B
 /C
 /D
 /E
 /F
 /G
 /H
 /I
 /J
 /K
 /L
 /M
 /N
 /O
 /P
 /Q
 /R
 /S
 /T
 /U
 /V
 /W
 /X
 /Y
 /Z
 /bracketleft
 /backslash
 /bracketright
 /asciicircum
 /underscore
 /grave
 /a
 /b
 /c
 /d
 /e
 /f
 /g
 /h
 /i
 /j
 /k
 /l
 /m
 /n
 /o
 /p
 /q
 /r
 /s
 /t
 /u
 /v
 /w
 /x
 /y
 /z
 /braceleft
 /bar
 /braceright
 /asciitilde
 /.notdef
 /.notdef
 /.notdef
 /.notdef
 /.notdef
 /.notdef
 /.notdef
 /.notdef
 /.notdef
 /.notdef
 /.notdef
 /.notdef
 /.notdef
 /.notdef
 /.notdef
 /.notdef
 /.notdef
 /.notdef
 /.notdef
 /.notdef
 /.notdef
 /.notdef
 /.notdef
 /.notdef
 /.notdef
 /.notdef
 /.notdef
 /.notdef
 /.notdef
 /.notdef
 /.notdef
 /.notdef
 /.notdef
 /space
 /exclamdown
 /cent
 /sterling
 /currency
 /yen
 /brokenbar
 /section
 /dieresis
 /copyright
 /ordfeminine
 /guillemotleft
 /logicalnot
 /hyphen
 /registered
 /macron
 /degree
 /plusminus
 /twosuperior
 /threesuperior
 /acute
 /mu
 /paragraph
 /periodcentered
 /cedilla
 /onesuperior
 /ordmasculine
 /guillemotright
 /onequarter
 /onehalf
 /threequarters
 /questiondown
 /Agrave
 /Aacute
 /Acircumflex
 /Atilde
 /Adieresis
 /Aring
 /AE
 /Ccedilla
 /Egrave
 /Eacute
 /Ecircumflex
 /Edieresis
 /Igrave
 /Iacute
 /Icircumflex
 /Idieresis
 /Eth
 /Ntilde
 /Ograve
 /Oacute
 /Ocircumflex
 /Otilde
 /Odieresis
 /multiply
 /Oslash
 /Ugrave
 /Uacute
 /Ucircumflex
 /Udieresis
 /Yacute
 /Thorn
 /germandbls
 /agrave
 /aacute
 /acircumflex
 /atilde
 /adieresis
 /aring
 /ae
 /ccedilla
 /egrave
 /eacute
 /ecircumflex
 /edieresis
 /igrave
 /iacute
 /icircumflex
 /idieresis
 /eth
 /ntilde
 /ograve
 /oacute
 /ocircumflex
 /otilde
 /odieresis
 /divide
 /oslash
 /ugrave
 /uacute
 /ucircumflex
 /udieresis
 /yacute
 /thorn
 /ydieresis
] def
%%EndProlog
%%BeginSetup
%%EndSetup
612.00 612.00 scale
n
0.0000 0.0000 m
0.0000 1.0000 l
1.2941 1.0000 l
1.2941 0.0000 l
c
[/DeviceRGB] SCS
Color0 SC
fill
n
0.1900 0.1500 m
0.1900 0.8500 l
0.2100 0.8500 l
0.2100 0.1500 l
c
[/DeviceRGB] SCS
Color1 SC
fill
[] 0 SD
0.0015 SLW
0 SLC
0 SLJ
n
0.1900 0.1500 m
0.1900 0.8501 l
s
n
0.2100 0.8501 m
0.2100 0.1500 l
0.1900 0.1500 l
s
n
0.2900 0.1500 m
0.2900 0.6694 l
0.3100 0.6694 l
0.3100 0.1500 l
c
GS
Color0 SRGB
fill
GR
[/Pattern /DeviceRGB] SCS
Color1 Pattern12 SC
fill
[/DeviceRGB] SCS
Color1 SC
n
0.2900 0.1500 m
0.2900 0.6694 l
0.3100 0.6694 l
0.3100 0.1500 l
0.2900 0.1500 l
c
s
n
0.3900 0.1500 m
0.3900 0.4538 l
0.4100 0.4538 l
0.4100 0.1500 l
c
[/DeviceRGB] SCS
Color2 SC
fill
n
0.3900 0.1500 m
0.3900 0.4538 l
0.4100 0.4538 l
0.4100 0.1500 l
0.3900 0.1500 l
c
s
n
0.4900 0.1500 m
0.4900 0.4496 l
0.5100 0.4496 l
0.5100 0.1500 l
c
GS
Color0 SRGB
fill
GR
[/Pattern /DeviceRGB] SCS
Color2 Pattern12 SC
fill
[/DeviceRGB] SCS
Color2 SC
n
0.4900 0.1500 m
0.4900 0.4496 l
0.5100 0.4496 l
0.5100 0.1500 l
0.4900 0.1500 l
c
s
n
0.5900 0.1500 m
0.5900 0.7170 l
0.6100 0.7170 l
0.6100 0.1500 l
c
[/DeviceRGB] SCS
Color4 SC
fill
n
0.5900 0.1500 m
0.5900 0.7170 l
0.6100 0.7170 l
0.6100 0.1500 l
0.5900 0.1500 l
c
s
n
0.6900 0.1500 m
0.6900 0.5910 l
0.7100 0.5910 l
0.7100 0.1500 l
c
GS
Color0 SRGB
fill
GR
[/Pattern /DeviceRGB] SCS
Color4 Pattern12 SC
fill
[/DeviceRGB] SCS
Color4 SC
n
0.6900 0.1500 m
0.6900 0.5910 l
0.7100 0.5910 l
0.7100 0.1500 l
0.6900 0.1500 l
c
s
n
0.7900 0.1500 m
0.7900 0.4160 l
0.8100 0.4160 l
0.8100 0.1500 l
c
[/DeviceRGB] SCS
Color15 SC
fill
n
0.7900 0.1500 m
0.7900 0.4160 l
0.8100 0.4160 l
0.8100 0.1500 l
0.7900 0.1500 l
c
s
n
0.8900 0.1500 m
0.8900 0.5560 l
0.9100 0.5560 l
0.9100 0.1500 l
c
GS
Color0 SRGB
fill
GR
[/Pattern /DeviceRGB] SCS
Color15 Pattern12 SC
fill
[/DeviceRGB] SCS
Color15 SC
n
0.8900 0.1500 m
0.8900 0.5560 l
0.9100 0.5560 l
0.9100 0.1500 l
0.8900 0.1500 l
c
s
n
0.9900 0.1500 m
0.9900 0.4944 l
1.0100 0.4944 l
1.0100 0.1500 l
c
[/DeviceRGB] SCS
Color13 SC
fill
n
0.9900 0.1500 m
0.9900 0.4944 l
1.0100 0.4944 l
1.0100 0.1500 l
0.9900 0.1500 l
c
s
n
1.0900 0.1500 m
1.0900 0.4369 l
1.1100 0.4369 l
1.1100 0.1500 l
c
GS
Color0 SRGB
fill
GR
[/Pattern /DeviceRGB] SCS
Color13 Pattern12 SC
fill
[/DeviceRGB] SCS
Color13 SC
n
1.0900 0.1500 m
1.0900 0.4369 l
1.1100 0.4369 l
1.1100 0.1500 l
1.0900 0.1500 l
c
s
[/DeviceRGB] SCS
Color1 SC
n
0.1500 0.1500 m
1.1500 0.1500 l
s
n
0.1500 0.8500 m
1.1500 0.8500 l
s
/Helvetica findfont
dup length dict begin
 {1 index /FID ne {def} {pop pop} ifelse} forall
 /Encoding DefEncoding def
 currentdict
end
/Font4 exch definefont pop
/Font4 FFSF
0.4420 0.1141 m
GS
[0.0350 0.0000 0.0000 0.0350 0 0] CC
(Compiler/Arch/optimisation) show
GR
n
0.1500 0.1500 m
0.1500 0.8500 l
s
n
1.1500 0.1500 m
1.1500 0.8500 l
s
n
0.1500 0.1780 m
0.1600 0.1780 l
s
n
1.1500 0.1780 m
1.1400 0.1780 l
s
n
0.1500 0.2060 m
0.1600 0.2060 l
s
n
1.1500 0.2060 m
1.1400 0.2060 l
s
n
0.1500 0.2340 m
0.1600 0.2340 l
s
n
1.1500 0.2340 m
1.1400 0.2340 l
s
n
0.1500 0.2620 m
0.1600 0.2620 l
s
n
1.1500 0.2620 m
1.1400 0.2620 l
s
n
0.1500 0.3180 m
0.1600 0.3180 l
s
n
1.1500 0.3180 m
1.1400 0.3180 l
s
n
0.1500 0.3460 m
0.1600 0.3460 l
s
n
1.1500 0.3460 m
1.1400 0.3460 l
s
n
0.1500 0.3740 m
0.1600 0.3740 l
s
n
1.1500 0.3740 m
1.1400 0.3740 l
s
n
0.1500 0.4020 m
0.1600 0.4020 l
s
n
1.1500 0.4020 m
1.1400 0.4020 l
s
n
0.1500 0.4580 m
0.1600 0.4580 l
s
n
1.1500 0.4580 m
1.1400 0.4580 l
s
n
0.1500 0.4860 m
0.1600 0.4860 l
s
n
1.1500 0.4860 m
1.1400 0.4860 l
s
n
0.1500 0.5140 m
0.1600 0.5140 l
s
n
1.1500 0.5140 m
1.1400 0.5140 l
s
n
0.1500 0.5420 m
0.1600 0.5420 l
s
n
1.1500 0.5420 m
1.1400 0.5420 l
s
n
0.1500 0.5980 m
0.1600 0.5980 l
s
n
1.1500 0.5980 m
1.1400 0.5980 l
s
n
0.1500 0.6260 m
0.1600 0.6260 l
s
n
1.1500 0.6260 m
1.1400 0.6260 l
s
n
0.1500 0.6540 m
0.1600 0.6540 l
s
n
1.1500 0.6540 m
1.1400 0.6540 l
s
n
0.1500 0.6820 m
0.1600 0.6820 l
s
n
1.1500 0.6820 m
1.1400 0.6820 l
s
n
0.1500 0.7380 m
0.1600 0.7380 l
s
n
1.1500 0.7380 m
1.1400 0.7380 l
s
n
0.1500 0.7660 m
0.1600 0.7660 l
s
n
1.1500 0.7660 m
1.1400 0.7660 l
s
n
0.1500 0.7940 m
0.1600 0.7940 l
s
n
1.1500 0.7940 m
1.1400 0.7940 l
s
n
0.1500 0.8220 m
0.1600 0.8220 l
s
n
1.1500 0.8220 m
1.1400 0.8220 l
s
n
0.1500 0.1500 m
0.1700 0.1500 l
s
n
1.1500 0.1500 m
1.1300 0.1500 l
s
n
0.1500 0.2900 m
0.1700 0.2900 l
s
n
1.1500 0.2900 m
1.1300 0.2900 l
s
n
0.1500 0.4300 m
0.1700 0.4300 l
s
n
1.1500 0.4300 m
1.1300 0.4300 l
s
n
0.1500 0.5700 m
0.1700 0.5700 l
s
n
1.1500 0.5700 m
1.1300 0.5700 l
s
n
0.1500 0.7100 m
0.1700 0.7100 l
s
n
1.1500 0.7100 m
1.1300 0.7100 l
s
n
0.1500 0.8500 m
0.1700 0.8500 l
s
n
1.1500 0.8500 m
1.1300 0.8500 l
s
/Font4 FFSF
0.1259 0.1404 m
GS
[0.0280 0.0000 0.0000 0.0280 0 0] CC
(0) show
GR
/Font4 FFSF
0.0600 0.2804 m
GS
[0.0280 0.0000 0.0000 0.0280 0 0] CC
(0.0001) show
GR
/Font4 FFSF
0.0553 0.4204 m
GS
[0.0280 0.0000 0.0000 0.0280 0 0] CC
(0.0002) show
GR
/Font4 FFSF
0.0557 0.5604 m
GS
[0.0280 0.0000 0.0000 0.0280 0 0] CC
(0.0003) show
GR
/Font4 FFSF
0.0553 0.7004 m
GS
[0.0280 0.0000 0.0000 0.0280 0 0] CC
(0.0004) show
GR
/Font4 FFSF
0.0553 0.8404 m
GS
[0.0280 0.0000 0.0000 0.0280 0 0] CC
(0.0005) show
GR
/Font4 FFSF
0.0378 0.4429 m
GS
[0.0000 0.0350 -0.0350 0.0000 0 0] CC
(time \(s\)) show
GR
n
0.1500 0.1500 m
0.1500 0.8500 l
1.1500 0.8500 l
1.1500 0.1500 l
0.1500 0.1500 l
c
s
n
0.9000 0.9500 m
0.9000 0.5710 l
1.1973 0.5710 l
1.1973 0.9500 l
c
[/DeviceRGB] SCS
Color0 SC
fill
[/DeviceRGB] SCS
Color1 SC
n
0.9000 0.9500 m
0.9000 0.5710 l
1.1973 0.5710 l
1.1973 0.9500 l
0.9000 0.9500 l
c
s
/Font4 FFSF
0.9700 0.9192 m
GS
[0.0280 0.0000 0.0000 0.0280 0 0] CC
(PAS Cray no opt) show
GR
n
0.9200 0.9165 m
0.9200 0.9365 l
0.9400 0.9365 l
0.9400 0.9165 l
c
fill
n
0.9200 0.9165 m
0.9200 0.9365 l
0.9400 0.9365 l
0.9400 0.9165 l
0.9200 0.9165 l
c
s
/Font4 FFSF
0.9700 0.8822 m
GS
[0.0280 0.0000 0.0000 0.0280 0 0] CC
(PAS Cray opt) show
GR
n
0.9200 0.8794 m
0.9200 0.8994 l
0.9400 0.8994 l
0.9400 0.8794 l
c
GS
Color0 SRGB
fill
GR
[/Pattern /DeviceRGB] SCS
Color1 Pattern12 SC
fill
[/DeviceRGB] SCS
Color1 SC
n
0.9200 0.8794 m
0.9200 0.8994 l
0.9400 0.8994 l
0.9400 0.8794 l
0.9200 0.8794 l
c
s
/Font4 FFSF
0.9700 0.8451 m
GS
[0.0280 0.0000 0.0000 0.0280 0 0] CC
(KNL Cray no opt) show
GR
n
0.9200 0.8424 m
0.9200 0.8624 l
0.9400 0.8624 l
0.9400 0.8424 l
c
[/DeviceRGB] SCS
Color2 SC
fill
n
0.9200 0.8424 m
0.9200 0.8624 l
0.9400 0.8624 l
0.9400 0.8424 l
0.9200 0.8424 l
c
s
/Font4 FFSF
[/DeviceRGB] SCS
Color1 SC
0.9700 0.8080 m
GS
[0.0280 0.0000 0.0000 0.0280 0 0] CC
(KNL Cray opt) show
GR
n
0.9200 0.8053 m
0.9200 0.8253 l
0.9400 0.8253 l
0.9400 0.8053 l
c
GS
Color0 SRGB
fill
GR
[/Pattern /DeviceRGB] SCS
Color2 Pattern12 SC
fill
[/DeviceRGB] SCS
Color2 SC
n
0.9200 0.8053 m
0.9200 0.8253 l
0.9400 0.8253 l
0.9400 0.8053 l
0.9200 0.8053 l
c
s
/Font4 FFSF
[/DeviceRGB] SCS
Color1 SC
0.9700 0.7714 m
GS
[0.0280 0.0000 0.0000 0.0280 0 0] CC
(KNL Intel no opt) show
GR
n
0.9200 0.7686 m
0.9200 0.7886 l
0.9400 0.7886 l
0.9400 0.7686 l
c
[/DeviceRGB] SCS
Color4 SC
fill
n
0.9200 0.7686 m
0.9200 0.7886 l
0.9400 0.7886 l
0.9400 0.7686 l
0.9200 0.7686 l
c
s
/Font4 FFSF
[/DeviceRGB] SCS
Color1 SC
0.9700 0.7351 m
GS
[0.0280 0.0000 0.0000 0.0280 0 0] CC
(KNL Intel opt) show
GR
n
0.9200 0.7324 m
0.9200 0.7524 l
0.9400 0.7524 l
0.9400 0.7324 l
c
GS
Color0 SRGB
fill
GR
[/Pattern /DeviceRGB] SCS
Color4 Pattern12 SC
fill
[/DeviceRGB] SCS
Color4 SC
n
0.9200 0.7324 m
0.9200 0.7524 l
0.9400 0.7524 l
0.9400 0.7324 l
0.9200 0.7324 l
c
s
/Font4 FFSF
[/DeviceRGB] SCS
Color1 SC
0.9700 0.6984 m
GS
[0.0280 0.0000 0.0000 0.0280 0 0] CC
(BDW Cray no opt) show
GR
n
0.9200 0.6957 m
0.9200 0.7157 l
0.9400 0.7157 l
0.9400 0.6957 l
c
[/DeviceRGB] SCS
Color15 SC
fill
n
0.9200 0.6957 m
0.9200 0.7157 l
0.9400 0.7157 l
0.9400 0.6957 l
0.9200 0.6957 l
c
s
/Font4 FFSF
[/DeviceRGB] SCS
Color1 SC
0.9700 0.6614 m
GS
[0.0280 0.0000 0.0000 0.0280 0 0] CC
(BDW Cray opt) show
GR
n
0.9200 0.6586 m
0.9200 0.6786 l
0.9400 0.6786 l
0.9400 0.6586 l
c
GS
Color0 SRGB
fill
GR
[/Pattern /DeviceRGB] SCS
Color15 Pattern12 SC
fill
[/DeviceRGB] SCS
Color15 SC
n
0.9200 0.6586 m
0.9200 0.6786 l
0.9400 0.6786 l
0.9400 0.6586 l
0.9200 0.6586 l
c
s
/Font4 FFSF
[/DeviceRGB] SCS
Color1 SC
0.9700 0.6243 m
GS
[0.0280 0.0000 0.0000 0.0280 0 0] CC
(ARM Cray no opt) show
GR
n
0.9200 0.6216 m
0.9200 0.6416 l
0.9400 0.6416 l
0.9400 0.6216 l
c
[/DeviceRGB] SCS
Color13 SC
fill
n
0.9200 0.6216 m
0.9200 0.6416 l
0.9400 0.6416 l
0.9400 0.6216 l
0.9200 0.6216 l
c
s
/Font4 FFSF
[/DeviceRGB] SCS
Color1 SC
0.9700 0.5873 m
GS
[0.0280 0.0000 0.0000 0.0280 0 0] CC
(ARM Cray Opt) show
GR
n
0.9200 0.5845 m
0.9200 0.6045 l
0.9400 0.6045 l
0.9400 0.5845 l
c
GS
Color0 SRGB
fill
GR
[/Pattern /DeviceRGB] SCS
Color13 Pattern12 SC
fill
[/DeviceRGB] SCS
Color13 SC
n
0.9200 0.5845 m
0.9200 0.6045 l
0.9400 0.6045 l
0.9400 0.5845 l
0.9200 0.5845 l
c
s
%%Trailer
%%BoundingBox: 6 64 735 583
%%DocumentNeededResources: font Helvetica
%%EOF
